Predicting One Family Dwellings Sale Prices in New York City
…
To compare coefficient estimates, we follow a broom and tidyverse
workflow with four steps. First, we nest the tibble by the categorical
variable “borough” using the nest() function from tidyr, creating
grouped tibbles for each borough. The NYC_dwellings tibble is collapsed
from 8,854 observations to only 5.

# NYC_dwellings is collapsed from 8,854 observations to only 5
NYC_nested <- NYC_dwellings |>
  group_by(borough) |>
  nest()

# View first few rows for Bronx
print(NYC_nested$data[[1]])

## # A tibble: 664 × 19
##    neighborhood building_class_category tax_class_at_present block   lot
##    <chr>        <chr>                   <chr>                <dbl> <dbl>
##  1 Bathgate     01 One Family Dwellings 1                     3046    40
##  2 Bathgate     01 One Family Dwellings 1                     3050    91
##  3 Bathgate     01 One Family Dwellings 1                     3053   103
##  4 Baychester   01 One Family Dwellings 1                     4706    32
##  5 Baychester   01 One Family Dwellings 1                     4706    32
##  6 Baychester   01 One Family Dwellings 1                     4707    32
##  7 Baychester   01 One Family Dwellings 1                     4708   126
##  8 Baychester   01 One Family Dwellings 1                     4711    48
##  9 Baychester   01 One Family Dwellings 1                     4715     9
## 10 Baychester   01 One Family Dwellings 1                     4715    80
## # ℹ 654 more rows
## # ℹ 14 more variables: building_class_at_present <chr>, address <chr>,
## #   apartment_number <chr>, zip_code <dbl>, residential_units <dbl>,
## #   commercial_units <dbl>, total_units <dbl>, land_square_feet <dbl>,
## #   gross_square_feet <dbl>, year_built <dbl>, tax_class_at_time_of_sale <dbl>,
## #   building_class_at_time_of_sale <chr>, sale_price <dbl>, sale_date <dttm>
…
